<?xml version="1.0" encoding="utf-8"?>
<svg viewBox="0 0 24 24" width="24" height="24" xmlns="http://www.w3.org/2000/svg" xmlns:bx="https://boxy-svg.com">
  <circle style="fill: rgb(255, 180, 0);" cx="21.511" r="12" cy="21.511" transform="matrix(1, 0, 0, 1.000001, -9.511, -9.511021)" bx:origin="0 0"/>
  <path id="_Icon_Сolor-2" data-name="🎨 Icon Сolor" d="M 11.111 23 C 10.516 23 10.053 22.484 10.117 21.893 L 10.886 14.8 L 5 14.8 C 4.23 14.8 3.749 13.966 4.134 13.3 C 4.145 13.281 4.157 13.262 4.169 13.244 L 12.058 1.445 C 12.487 0.806 13.447 0.87 13.786 1.561 C 13.869 1.73 13.903 1.92 13.883 2.108 L 13.114 9.2 L 19 9.2 C 19.77 9.2 20.251 10.034 19.866 10.7 C 19.855 10.719 19.843 10.738 19.831 10.756 L 11.942 22.556 C 11.756 22.833 11.445 23 11.111 23 Z M 11.455 5.944 L 6.871 12.8 L 12 12.8 C 12.595 12.8 13.058 13.316 12.994 13.907 L 12.545 18.057 L 17.129 11.2 L 12 11.2 C 11.405 11.2 10.942 10.684 11.006 10.093 L 11.455 5.944 Z"/>
</svg>